<?xml version="1.0" encoding="utf-8"?>
<!-- Generator: Adobe Illustrator 24.2.1, SVG Export Plug-In . SVG Version: 6.00 Build 0)  -->
<svg version="1.1" id="Calque_1" xmlns="http://www.w3.org/2000/svg" xmlns:xlink="http://www.w3.org/1999/xlink" x="0px" y="0px"
	 viewBox="0 0 333 337" style="enable-background:new 0 0 333 337;" xml:space="preserve">
<style type="text/css">
	.st0{fill:#797979;}
</style>
<g>
	<path class="st0" d="M290,262.5c-82,0-164,0-246,0c0.9-1.1,1.7-2.3,2.8-3.2c19.4-16.4,38.9-32.7,58.4-49.1
		c10.9-9.2,21.9-18.3,32.9-27.5c4,3.3,7.7,6.4,11.4,9.5c3.7,3.1,7.4,6.2,11.1,9.3c5.8,4.7,6.5,4.7,12.2-0.1
		c7.4-6.3,14.8-12.7,22.3-19.1c0.9,0.7,1.6,1.2,2.3,1.7c23.9,20.1,47.9,40.1,71.8,60.3C276.2,250.2,283.1,256.4,290,262.5z"/>
	<path class="st0" d="M43.5,80.7c82.5,0,163.9,0,246.3,0c-8.2,6.9-15.6,13.2-23,19.4c-31.7,26.6-63.4,53.2-95,79.9
		c-4,3.4-6.7,3.2-10.7-0.1c-37.8-32-75.8-63.8-113.7-95.7C46.4,83.4,45.4,82.4,43.5,80.7z"/>
	<path class="st0" d="M31.1,250.4c0-52.9,0-104.9,0-157.9c31.5,26.6,62.5,52.6,93.9,79C93.9,197.7,62.9,223.7,31.1,250.4z"/>
	<path class="st0" d="M208.6,171.2c31-26,61.7-51.9,93.1-78.3c0,52.4,0,104,0,156.4C270.4,223.2,239.7,197.4,208.6,171.2z"/>
</g>
</svg>
